simulation/modelsim/msim_transcript
# Reading C:/intelFPGA_lite/18.1/modelsim_ase/tcl/vsim/pref.tcl
# do parallel_fpga_run_msim_rtl_verilog.do
# if {[file exists rtl_work]} {
# 	vdel -lib rtl_work -all
# }
# vlib rtl_work
# vmap work rtl_work
# Model Technology ModelSim - Intel FPGA Edition vmap 10.5b Lib Mapping Utility 2016.10 Oct  5 2016
# vmap work rtl_work 
# Copying C:/intelFPGA_lite/18.1/modelsim_ase/win32aloem/../modelsim.ini to modelsim.ini
# Modifying modelsim.ini
# 
# vlog -sv -work work +incdir+C:/Users/lobok/Documents/parallel_bilineal_interpolation_fpga {C:/Users/lobok/Documents/parallel_bilineal_interpolation_fpga/dsa_control_fsm.sv}
# Model Technology ModelSim - Intel FPGA Edition vlog 10.5b Compiler 2016.10 Oct  5 2016
# Start time: 23:08:14 on Nov 14,2025
# vlog -reportprogress 300 -sv -work work "+incdir+C:/Users/lobok/Documents/parallel_bilineal_interpolation_fpga" C:/Users/lobok/Documents/parallel_bilineal_interpolation_fpga/dsa_control_fsm.sv 
# -- Compiling module dsa_control_fsm
# 
# Top level modules:
# 	dsa_control_fsm
# End time: 23:08:14 on Nov 14,2025, Elapsed time: 0:00:00
# Errors: 0, Warnings: 0
# 
# vlog -sv -work work +incdir+C:/Users/lobok/Documents/parallel_bilineal_interpolation_fpga {C:/Users/lobok/Documents/parallel_bilineal_interpolation_fpga/testbench_fsms.sv}
# Model Technology ModelSim - Intel FPGA Edition vlog 10.5b Compiler 2016.10 Oct  5 2016
# Start time: 23:08:14 on Nov 14,2025
# vlog -reportprogress 300 -sv -work work "+incdir+C:/Users/lobok/Documents/parallel_bilineal_interpolation_fpga" C:/Users/lobok/Documents/parallel_bilineal_interpolation_fpga/testbench_fsms.sv 
# -- Compiling module testbench_fsms
# 
# Top level modules:
# 	testbench_fsms
# End time: 23:08:14 on Nov 14,2025, Elapsed time: 0:00:00
# Errors: 0, Warnings: 0
# 
# vsim -t 1ps -L altera_ver -L lpm_ver -L sgate_ver -L altera_mf_ver -L altera_lnsim_ver -L cyclonev_ver -L cyclonev_hssi_ver -L cyclonev_pcie_hip_ver -L rtl_work -L work -voptargs="+acc"  testbench_fsms
# vsim -t 1ps -L altera_ver -L lpm_ver -L sgate_ver -L altera_mf_ver -L altera_lnsim_ver -L cyclonev_ver -L cyclonev_hssi_ver -L cyclonev_pcie_hip_ver -L rtl_work -L work -voptargs=""+acc"" testbench_fsms 
# Start time: 23:08:16 on Nov 14,2025
# Loading sv_std.std
# Loading work.testbench_fsms
# Loading work.dsa_control_fsm
# 
# add wave *
# view structure
# .main_pane.structure.interior.cs.body.struct
# view signals
# .main_pane.objects.interior.cs.body.tree
# run -all
# Tiempo	state	busy	ready	next_pixel	pixel_index
# 0	000	0	0	0	    0
# 35000	001	0	0	0	    0
# 45000	010	1	0	0	    0
# 50000	010	1	0	1	    0
# 55000	010	1	0	1	    1
# 60000	010	1	0	0	    1
# 70000	010	1	0	1	    1
# 75000	010	1	0	1	    2
# 80000	010	1	0	0	    2
# 90000	010	1	0	1	    2
# 95000	010	1	0	1	    3
# 100000	010	1	0	0	    3
# 110000	010	1	0	1	    3
# 115000	010	1	0	1	    4
# 120000	010	1	0	0	    4
# 130000	010	1	0	1	    4
# 135000	010	1	0	1	    5
# 140000	010	1	0	0	    5
# 150000	010	1	0	1	    5
# 155000	010	1	0	1	    6
# 160000	010	1	0	0	    6
# 170000	010	1	0	1	    6
# 175000	010	1	0	1	    7
# 180000	010	1	0	0	    7
# 190000	010	1	0	1	    7
# 195000	010	1	0	1	    8
# 200000	010	1	0	0	    8
# 210000	010	1	0	1	    8
# 215000	010	1	0	1	    9
# 220000	010	1	0	0	    9
# 230000	010	1	0	1	    9
# 235000	010	1	0	1	   10
# 240000	010	1	0	0	   10
# 250000	010	1	0	1	   10
# 255000	010	1	0	1	   11
# 260000	010	1	0	0	   11
# 270000	010	1	0	1	   11
# 275000	010	1	0	1	   12
# 280000	010	1	0	0	   12
# 290000	010	1	0	1	   12
# 295000	010	1	0	1	   13
# 300000	010	1	0	0	   13
# 310000	010	1	0	1	   13
# 315000	010	1	0	1	   14
# 320000	010	1	0	0	   14
# 330000	010	1	0	1	   14
# 335000	010	1	0	1	   15
# 340000	010	1	0	0	   15
# 350000	010	1	0	1	   15
# 355000	010	1	0	1	   16
# 360000	010	1	0	0	   16
# 370000	010	1	0	1	   16
# 375000	010	1	0	1	   17
# 380000	010	1	0	0	   17
# 390000	010	1	0	1	   17
# 395000	010	1	0	1	   18
# 400000	010	1	0	0	   18
# 410000	010	1	0	1	   18
# 415000	010	1	0	1	   19
# 420000	010	1	0	0	   19
# 430000	010	1	0	1	   19
# 435000	010	1	0	1	   20
# 440000	010	1	0	0	   20
# 450000	010	1	0	1	   20
# 455000	010	1	0	1	   21
# 460000	010	1	0	0	   21
# 470000	010	1	0	1	   21
# 475000	010	1	0	1	   22
# 480000	010	1	0	0	   22
# 490000	010	1	0	1	   22
# 495000	010	1	0	1	   23
# 500000	010	1	0	0	   23
# 510000	010	1	0	1	   23
# 515000	010	1	0	1	   24
# 520000	010	1	0	0	   24
# 530000	010	1	0	1	   24
# 535000	010	1	0	1	   25
# 540000	010	1	0	0	   25
# 550000	010	1	0	1	   25
# 555000	010	1	0	1	   26
# 560000	010	1	0	0	   26
# 570000	010	1	0	1	   26
# 575000	010	1	0	1	   27
# 580000	010	1	0	0	   27
# 590000	010	1	0	1	   27
# 595000	010	1	0	1	   28
# 600000	010	1	0	0	   28
# 610000	010	1	0	1	   28
# 615000	010	1	0	1	   29
# 620000	010	1	0	0	   29
# 630000	010	1	0	1	   29
# 635000	010	1	0	1	   30
# 640000	010	1	0	0	   30
# 650000	010	1	0	1	   30
# 655000	010	1	0	1	   31
# 660000	010	1	0	0	   31
# 670000	010	1	0	1	   31
# 675000	010	1	0	1	   32
# 680000	010	1	0	0	   32
# 690000	010	1	0	1	   32
# 695000	010	1	0	1	   33
# 700000	010	1	0	0	   33
# 710000	010	1	0	1	   33
# 715000	010	1	0	1	   34
# 720000	010	1	0	0	   34
# 730000	010	1	0	1	   34
# 735000	010	1	0	1	   35
# 740000	010	1	0	0	   35
# 750000	010	1	0	1	   35
# 755000	010	1	0	1	   36
# 760000	010	1	0	0	   36
# 770000	010	1	0	1	   36
# 775000	010	1	0	1	   37
# 780000	010	1	0	0	   37
# 790000	010	1	0	1	   37
# 795000	010	1	0	1	   38
# 800000	010	1	0	0	   38
# 810000	010	1	0	1	   38
# 815000	010	1	0	1	   39
# 820000	010	1	0	0	   39
# 830000	010	1	0	1	   39
# 835000	010	1	0	1	   40
# 840000	010	1	0	0	   40
# 850000	010	1	0	1	   40
# 855000	010	1	0	1	   41
# 860000	010	1	0	0	   41
# 870000	010	1	0	1	   41
# 875000	010	1	0	1	   42
# 880000	010	1	0	0	   42
# 890000	010	1	0	1	   42
# 895000	010	1	0	1	   43
# 900000	010	1	0	0	   43
# 910000	010	1	0	1	   43
# 915000	010	1	0	1	   44
# 920000	010	1	0	0	   44
# 930000	010	1	0	1	   44
# 935000	010	1	0	1	   45
# 940000	010	1	0	0	   45
# 950000	010	1	0	1	   45
# 955000	010	1	0	1	   46
# 960000	010	1	0	0	   46
# 970000	010	1	0	1	   46
# 975000	010	1	0	1	   47
# 980000	010	1	0	0	   47
# 990000	010	1	0	1	   47
# 995000	010	1	0	1	   48
# 1000000	010	1	0	0	   48
# 1010000	010	1	0	1	   48
# 1015000	010	1	0	1	   49
# 1020000	010	1	0	0	   49
# 1030000	010	1	0	1	   49
# 1035000	010	1	0	1	   50
# 1040000	010	1	0	0	   50
# 1050000	010	1	0	1	   50
# 1055000	010	1	0	1	   51
# 1060000	010	1	0	0	   51
# 1070000	010	1	0	1	   51
# 1075000	010	1	0	1	   52
# 1080000	010	1	0	0	   52
# 1090000	010	1	0	1	   52
# 1095000	010	1	0	1	   53
# 1100000	010	1	0	0	   53
# 1110000	010	1	0	1	   53
# 1115000	010	1	0	1	   54
# 1120000	010	1	0	0	   54
# 1130000	010	1	0	1	   54
# 1135000	010	1	0	1	   55
# 1140000	010	1	0	0	   55
# 1150000	010	1	0	1	   55
# 1155000	010	1	0	1	   56
# 1160000	010	1	0	0	   56
# 1170000	010	1	0	1	   56
# 1175000	010	1	0	1	   57
# 1180000	010	1	0	0	   57
# 1190000	010	1	0	1	   57
# 1195000	010	1	0	1	   58
# 1200000	010	1	0	0	   58
# 1210000	010	1	0	1	   58
# 1215000	010	1	0	1	   59
# 1220000	010	1	0	0	   59
# 1230000	010	1	0	1	   59
# 1235000	010	1	0	1	   60
# 1240000	010	1	0	0	   60
# 1250000	010	1	0	1	   60
# 1255000	010	1	0	1	   61
# 1260000	010	1	0	0	   61
# 1270000	010	1	0	1	   61
# 1275000	010	1	0	1	   62
# 1280000	010	1	0	0	   62
# 1290000	010	1	0	1	   62
# 1295000	010	1	0	1	   63
# 1300000	010	1	0	0	   63
# 1310000	010	1	0	1	   63
# 1315000	011	0	1	0	   64
# 1325000	000	0	0	0	   64
# 1345000	001	0	0	0	   64
# 1355000	010	1	0	0	    0
# 1360000	010	1	0	1	    0
# 1365000	010	1	0	1	    1
# 1370000	010	1	0	0	    1
# 1380000	010	1	0	1	    1
# 1385000	010	1	0	1	    2
# 1390000	010	1	0	0	    2
# 1400000	010	1	0	1	    2
# 1405000	010	1	0	1	    3
# 1410000	010	1	0	0	    3
# 1420000	010	1	0	1	    3
# 1425000	010	1	0	1	    4
# 1430000	010	1	0	0	    4
# 1440000	010	1	0	1	    4
# 1445000	010	1	0	1	    5
# 1450000	010	1	0	0	    5
# 1460000	010	1	0	1	    5
# 1465000	010	1	0	1	    6
# 1470000	010	1	0	0	    6
# 1480000	010	1	0	1	    6
# 1485000	010	1	0	1	    7
# 1490000	010	1	0	0	    7
# 1500000	010	1	0	1	    7
# 1505000	010	1	0	1	    8
# 1510000	010	1	0	0	    8
# 1520000	010	1	0	1	    8
# 1525000	010	1	0	1	    9
# 1530000	010	1	0	0	    9
# 1540000	010	1	0	1	    9
# 1545000	010	1	0	1	   10
# 1550000	010	1	0	0	   10
# 1560000	010	1	0	1	   10
# 1565000	010	1	0	1	   11
# 1570000	010	1	0	0	   11
# 1580000	010	1	0	1	   11
# 1585000	010	1	0	1	   12
# 1590000	010	1	0	0	   12
# 1600000	010	1	0	1	   12
# 1605000	010	1	0	1	   13
# 1610000	010	1	0	0	   13
# 1620000	010	1	0	1	   13
# 1625000	010	1	0	1	   14
# 1630000	010	1	0	0	   14
# 1640000	010	1	0	1	   14
# 1645000	010	1	0	1	   15
# 1650000	010	1	0	0	   15
# 1660000	010	1	0	1	   15
# 1665000	010	1	0	1	   16
# 1670000	010	1	0	0	   16
# 1680000	010	1	0	1	   16
# 1685000	010	1	0	1	   17
# 1690000	010	1	0	0	   17
# 1700000	010	1	0	1	   17
# 1705000	010	1	0	1	   18
# 1710000	010	1	0	0	   18
# 1720000	010	1	0	1	   18
# 1725000	010	1	0	1	   19
# 1730000	010	1	0	0	   19
# 1740000	010	1	0	1	   19
# 1745000	010	1	0	1	   20
# 1750000	010	1	0	0	   20
# 1760000	010	1	0	1	   20
# 1765000	010	1	0	1	   21
# 1770000	010	1	0	0	   21
# 1780000	010	1	0	1	   21
# 1785000	010	1	0	1	   22
# 1790000	010	1	0	0	   22
# 1800000	010	1	0	1	   22
# 1805000	010	1	0	1	   23
# 1810000	010	1	0	0	   23
# 1820000	010	1	0	1	   23
# 1825000	010	1	0	1	   24
# 1830000	010	1	0	0	   24
# 1840000	010	1	0	1	   24
# 1845000	010	1	0	1	   25
# 1850000	010	1	0	0	   25
# 1860000	010	1	0	1	   25
# 1865000	010	1	0	1	   26
# 1870000	010	1	0	0	   26
# 1880000	010	1	0	1	   26
# 1885000	010	1	0	1	   27
# 1890000	010	1	0	0	   27
# 1900000	010	1	0	1	   27
# 1905000	010	1	0	1	   28
# 1910000	010	1	0	0	   28
# 1920000	010	1	0	1	   28
# 1925000	010	1	0	1	   29
# 1930000	010	1	0	0	   29
# 1940000	010	1	0	1	   29
# 1945000	010	1	0	1	   30
# 1950000	010	1	0	0	   30
# 1960000	010	1	0	1	   30
# 1965000	010	1	0	1	   31
# 1970000	010	1	0	0	   31
# 1980000	010	1	0	1	   31
# 1985000	010	1	0	1	   32
# 1990000	010	1	0	0	   32
# 2000000	010	1	0	1	   32
# 2005000	010	1	0	1	   33
# 2010000	010	1	0	0	   33
# 2020000	010	1	0	1	   33
# 2025000	010	1	0	1	   34
# 2030000	010	1	0	0	   34
# 2040000	010	1	0	1	   34
# 2045000	010	1	0	1	   35
# 2050000	010	1	0	0	   35
# 2060000	010	1	0	1	   35
# 2065000	010	1	0	1	   36
# 2070000	010	1	0	0	   36
# 2080000	010	1	0	1	   36
# 2085000	010	1	0	1	   37
# 2090000	010	1	0	0	   37
# 2100000	010	1	0	1	   37
# 2105000	010	1	0	1	   38
# 2110000	010	1	0	0	   38
# 2120000	010	1	0	1	   38
# 2125000	010	1	0	1	   39
# 2130000	010	1	0	0	   39
# 2140000	010	1	0	1	   39
# 2145000	010	1	0	1	   40
# 2150000	010	1	0	0	   40
# 2160000	010	1	0	1	   40
# 2165000	010	1	0	1	   41
# 2170000	010	1	0	0	   41
# 2180000	010	1	0	1	   41
# 2185000	010	1	0	1	   42
# 2190000	010	1	0	0	   42
# 2200000	010	1	0	1	   42
# 2205000	010	1	0	1	   43
# 2210000	010	1	0	0	   43
# 2220000	010	1	0	1	   43
# 2225000	010	1	0	1	   44
# 2230000	010	1	0	0	   44
# 2240000	010	1	0	1	   44
# 2245000	010	1	0	1	   45
# 2250000	010	1	0	0	   45
# 2260000	010	1	0	1	   45
# 2265000	010	1	0	1	   46
# 2270000	010	1	0	0	   46
# 2280000	010	1	0	1	   46
# 2285000	010	1	0	1	   47
# 2290000	010	1	0	0	   47
# 2300000	010	1	0	1	   47
# 2305000	010	1	0	1	   48
# 2310000	010	1	0	0	   48
# 2320000	010	1	0	1	   48
# 2325000	010	1	0	1	   49
# 2330000	010	1	0	0	   49
# 2340000	010	1	0	1	   49
# 2345000	010	1	0	1	   50
# 2350000	010	1	0	0	   50
# 2360000	010	1	0	1	   50
# 2365000	010	1	0	1	   51
# 2370000	010	1	0	0	   51
# 2380000	010	1	0	1	   51
# 2385000	010	1	0	1	   52
# 2390000	010	1	0	0	   52
# 2400000	010	1	0	1	   52
# 2405000	010	1	0	1	   53
# 2410000	010	1	0	0	   53
# 2420000	010	1	0	1	   53
# 2425000	010	1	0	1	   54
# 2430000	010	1	0	0	   54
# 2440000	010	1	0	1	   54
# 2445000	010	1	0	1	   55
# 2450000	010	1	0	0	   55
# 2460000	010	1	0	1	   55
# 2465000	010	1	0	1	   56
# 2470000	010	1	0	0	   56
# 2480000	010	1	0	1	   56
# 2485000	010	1	0	1	   57
# 2490000	010	1	0	0	   57
# 2500000	010	1	0	1	   57
# 2505000	010	1	0	1	   58
# 2510000	010	1	0	0	   58
# 2520000	010	1	0	1	   58
# 2525000	010	1	0	1	   59
# 2530000	010	1	0	0	   59
# 2540000	010	1	0	1	   59
# 2545000	010	1	0	1	   60
# 2550000	010	1	0	0	   60
# 2560000	010	1	0	1	   60
# 2565000	010	1	0	1	   61
# 2570000	010	1	0	0	   61
# 2580000	010	1	0	1	   61
# 2585000	010	1	0	1	   62
# 2590000	010	1	0	0	   62
# 2600000	010	1	0	1	   62
# 2605000	010	1	0	1	   63
# 2610000	010	1	0	0	   63
# 2620000	010	1	0	1	   63
# 2625000	011	0	1	0	   64
# 2635000	000	0	0	0	   64
# Testbench FSM finalizado.
# ** Note: $stop    : C:/Users/lobok/Documents/parallel_bilineal_interpolation_fpga/testbench_fsms.sv(91)
#    Time: 2650 ns  Iteration: 0  Instance: /testbench_fsms
# Break in Module testbench_fsms at C:/Users/lobok/Documents/parallel_bilineal_interpolation_fpga/testbench_fsms.sv line 91
# End time: 23:15:53 on Nov 14,2025, Elapsed time: 0:07:37
# Errors: 0, Warnings: 0
