fpga/simulation/modelsim/msim_transcript
# Reading C:/intelFPGA_lite/18.1/modelsim_ase/tcl/vsim/pref.tcl
# do parallel_fpga_run_msim_rtl_verilog.do
# if {[file exists rtl_work]} {
# 	vdel -lib rtl_work -all
# }
# vlib rtl_work
# vmap work rtl_work
# Model Technology ModelSim - Intel FPGA Edition vmap 10.5b Lib Mapping Utility 2016.10 Oct  5 2016
# vmap work rtl_work 
# Copying C:/intelFPGA_lite/18.1/modelsim_ase/win32aloem/../modelsim.ini to modelsim.ini
# Modifying modelsim.ini
# 
# vlog -sv -work work +incdir+C:/Users/lobok/Documents/parallel_bilineal_interpolation_fpga/fpga {C:/Users/lobok/Documents/parallel_bilineal_interpolation_fpga/fpga/dsa_datapath.sv}
# Model Technology ModelSim - Intel FPGA Edition vlog 10.5b Compiler 2016.10 Oct  5 2016
# Start time: 14:50:38 on Nov 27,2025
# vlog -reportprogress 300 -sv -work work "+incdir+C:/Users/lobok/Documents/parallel_bilineal_interpolation_fpga/fpga" C:/Users/lobok/Documents/parallel_bilineal_interpolation_fpga/fpga/dsa_datapath.sv 
# -- Compiling module dsa_datapath
# 
# Top level modules:
# 	dsa_datapath
# End time: 14:50:38 on Nov 27,2025, Elapsed time: 0:00:00
# Errors: 0, Warnings: 0
# vlog -sv -work work +incdir+C:/Users/lobok/Documents/parallel_bilineal_interpolation_fpga/fpga {C:/Users/lobok/Documents/parallel_bilineal_interpolation_fpga/fpga/dsa_datapath_simd.sv}
# Model Technology ModelSim - Intel FPGA Edition vlog 10.5b Compiler 2016.10 Oct  5 2016
# Start time: 14:50:38 on Nov 27,2025
# vlog -reportprogress 300 -sv -work work "+incdir+C:/Users/lobok/Documents/parallel_bilineal_interpolation_fpga/fpga" C:/Users/lobok/Documents/parallel_bilineal_interpolation_fpga/fpga/dsa_datapath_simd.sv 
# -- Compiling module dsa_datapath_simd
# 
# Top level modules:
# 	dsa_datapath_simd
# End time: 14:50:38 on Nov 27,2025, Elapsed time: 0:00:00
# Errors: 0, Warnings: 0
# vlog -sv -work work +incdir+C:/Users/lobok/Documents/parallel_bilineal_interpolation_fpga/fpga {C:/Users/lobok/Documents/parallel_bilineal_interpolation_fpga/fpga/dsa_mem_interface.sv}
# Model Technology ModelSim - Intel FPGA Edition vlog 10.5b Compiler 2016.10 Oct  5 2016
# Start time: 14:50:38 on Nov 27,2025
# vlog -reportprogress 300 -sv -work work "+incdir+C:/Users/lobok/Documents/parallel_bilineal_interpolation_fpga/fpga" C:/Users/lobok/Documents/parallel_bilineal_interpolation_fpga/fpga/dsa_mem_interface.sv 
# -- Compiling module dsa_mem_interface
# 
# Top level modules:
# 	dsa_mem_interface
# End time: 14:50:38 on Nov 27,2025, Elapsed time: 0:00:00
# Errors: 0, Warnings: 0
# vlog -sv -work work +incdir+C:/Users/lobok/Documents/parallel_bilineal_interpolation_fpga/fpga {C:/Users/lobok/Documents/parallel_bilineal_interpolation_fpga/fpga/dsa_pixel_fetch_sequential.sv}
# Model Technology ModelSim - Intel FPGA Edition vlog 10.5b Compiler 2016.10 Oct  5 2016
# Start time: 14:50:38 on Nov 27,2025
# vlog -reportprogress 300 -sv -work work "+incdir+C:/Users/lobok/Documents/parallel_bilineal_interpolation_fpga/fpga" C:/Users/lobok/Documents/parallel_bilineal_interpolation_fpga/fpga/dsa_pixel_fetch_sequential.sv 
# -- Compiling module dsa_pixel_fetch_sequential
# 
# Top level modules:
# 	dsa_pixel_fetch_sequential
# End time: 14:50:39 on Nov 27,2025, Elapsed time: 0:00:01
# Errors: 0, Warnings: 0
# vlog -sv -work work +incdir+C:/Users/lobok/Documents/parallel_bilineal_interpolation_fpga/fpga {C:/Users/lobok/Documents/parallel_bilineal_interpolation_fpga/fpga/dsa_pixel_fetch_simd.sv}
# Model Technology ModelSim - Intel FPGA Edition vlog 10.5b Compiler 2016.10 Oct  5 2016
# Start time: 14:50:39 on Nov 27,2025
# vlog -reportprogress 300 -sv -work work "+incdir+C:/Users/lobok/Documents/parallel_bilineal_interpolation_fpga/fpga" C:/Users/lobok/Documents/parallel_bilineal_interpolation_fpga/fpga/dsa_pixel_fetch_simd.sv 
# -- Compiling module dsa_pixel_fetch_simd
# 
# Top level modules:
# 	dsa_pixel_fetch_simd
# End time: 14:50:39 on Nov 27,2025, Elapsed time: 0:00:00
# Errors: 0, Warnings: 0
# vlog -sv -work work +incdir+C:/Users/lobok/Documents/parallel_bilineal_interpolation_fpga/fpga {C:/Users/lobok/Documents/parallel_bilineal_interpolation_fpga/fpga/dsa_pixel_fetch_unified.sv}
# Model Technology ModelSim - Intel FPGA Edition vlog 10.5b Compiler 2016.10 Oct  5 2016
# Start time: 14:50:39 on Nov 27,2025
# vlog -reportprogress 300 -sv -work work "+incdir+C:/Users/lobok/Documents/parallel_bilineal_interpolation_fpga/fpga" C:/Users/lobok/Documents/parallel_bilineal_interpolation_fpga/fpga/dsa_pixel_fetch_unified.sv 
# -- Compiling module dsa_pixel_fetch_unified
# 
# Top level modules:
# 	dsa_pixel_fetch_unified
# End time: 14:50:39 on Nov 27,2025, Elapsed time: 0:00:00
# Errors: 0, Warnings: 0
# vlog -sv -work work +incdir+C:/Users/lobok/Documents/parallel_bilineal_interpolation_fpga/fpga {C:/Users/lobok/Documents/parallel_bilineal_interpolation_fpga/fpga/dsa_control_fsm_simd.sv}
# Model Technology ModelSim - Intel FPGA Edition vlog 10.5b Compiler 2016.10 Oct  5 2016
# Start time: 14:50:40 on Nov 27,2025
# vlog -reportprogress 300 -sv -work work "+incdir+C:/Users/lobok/Documents/parallel_bilineal_interpolation_fpga/fpga" C:/Users/lobok/Documents/parallel_bilineal_interpolation_fpga/fpga/dsa_control_fsm_simd.sv 
# -- Compiling module dsa_control_fsm_simd
# 
# Top level modules:
# 	dsa_control_fsm_simd
# End time: 14:50:40 on Nov 27,2025, Elapsed time: 0:00:00
# Errors: 0, Warnings: 0
# vlog -sv -work work +incdir+C:/Users/lobok/Documents/parallel_bilineal_interpolation_fpga/fpga {C:/Users/lobok/Documents/parallel_bilineal_interpolation_fpga/fpga/dsa_control_fsm_sequential.sv}
# Model Technology ModelSim - Intel FPGA Edition vlog 10.5b Compiler 2016.10 Oct  5 2016
# Start time: 14:50:40 on Nov 27,2025
# vlog -reportprogress 300 -sv -work work "+incdir+C:/Users/lobok/Documents/parallel_bilineal_interpolation_fpga/fpga" C:/Users/lobok/Documents/parallel_bilineal_interpolation_fpga/fpga/dsa_control_fsm_sequential.sv 
# -- Compiling module dsa_control_fsm_sequential
# 
# Top level modules:
# 	dsa_control_fsm_sequential
# End time: 14:50:40 on Nov 27,2025, Elapsed time: 0:00:00
# Errors: 0, Warnings: 0
# vlog -sv -work work +incdir+C:/Users/lobok/Documents/parallel_bilineal_interpolation_fpga/fpga {C:/Users/lobok/Documents/parallel_bilineal_interpolation_fpga/fpga/dsa_top.sv}
# Model Technology ModelSim - Intel FPGA Edition vlog 10.5b Compiler 2016.10 Oct  5 2016
# Start time: 14:50:41 on Nov 27,2025
# vlog -reportprogress 300 -sv -work work "+incdir+C:/Users/lobok/Documents/parallel_bilineal_interpolation_fpga/fpga" C:/Users/lobok/Documents/parallel_bilineal_interpolation_fpga/fpga/dsa_top.sv 
# -- Compiling module dsa_top
# 
# Top level modules:
# 	dsa_top
# End time: 14:50:41 on Nov 27,2025, Elapsed time: 0:00:00
# Errors: 0, Warnings: 0
# 
# vlog -sv -work work +incdir+C:/Users/lobok/Documents/parallel_bilineal_interpolation_fpga/fpga {C:/Users/lobok/Documents/parallel_bilineal_interpolation_fpga/fpga/dsa_top_tb.sv}
# Model Technology ModelSim - Intel FPGA Edition vlog 10.5b Compiler 2016.10 Oct  5 2016
# Start time: 14:50:41 on Nov 27,2025
# vlog -reportprogress 300 -sv -work work "+incdir+C:/Users/lobok/Documents/parallel_bilineal_interpolation_fpga/fpga" C:/Users/lobok/Documents/parallel_bilineal_interpolation_fpga/fpga/dsa_top_tb.sv 
# -- Compiling module dsa_top_tb
# 
# Top level modules:
# 	dsa_top_tb
# End time: 14:50:41 on Nov 27,2025, Elapsed time: 0:00:00
# Errors: 0, Warnings: 0
# 
# vsim -t 1ps -L altera_ver -L lpm_ver -L sgate_ver -L altera_mf_ver -L altera_lnsim_ver -L cyclonev_ver -L cyclonev_hssi_ver -L cyclonev_pcie_hip_ver -L rtl_work -L work -voptargs="+acc"  dsa_top_tb
# vsim -t 1ps -L altera_ver -L lpm_ver -L sgate_ver -L altera_mf_ver -L altera_lnsim_ver -L cyclonev_ver -L cyclonev_hssi_ver -L cyclonev_pcie_hip_ver -L rtl_work -L work -voptargs=""+acc"" dsa_top_tb 
# Start time: 14:50:41 on Nov 27,2025
# Loading sv_std.std
# Loading work.dsa_top_tb
# Loading work.dsa_top
# Loading work.dsa_control_fsm_sequential
# Loading work.dsa_control_fsm_simd
# Loading work.dsa_pixel_fetch_unified
# Loading work.dsa_pixel_fetch_sequential
# Loading work.dsa_pixel_fetch_simd
# Loading work.dsa_mem_interface
# Loading work.dsa_datapath
# Loading work.dsa_datapath_simd
# 
# add wave *
# view structure
# .main_pane.structure.interior.cs.body.struct
# view signals
# .main_pane.objects.interior.cs.body.tree
# run -all
# 
# ====================================================
# INICIO DE TESTBENCH DSA DOWNSCALING
# ====================================================
# 
# ========================================
# TEST 1: Imagen 8x8 Secuencial
# ========================================
# [0] Reseteando sistema...
# [145000] Reset completado
# [145000] Cargando imagen de prueba 8x8...
#   Cargando fila 0/8
# [795000] Imagen cargada exitosamente
# Dimensiones salida esperadas: 4x4
# [795000] Iniciando procesamiento en modo SECUENCIAL
# [815000] Esperando completar procesamiento...
# [2595000] Procesamiento completado en 178 ciclos
#   FLOPs ejecutadas: 256
#   Lecturas de memoria: 64
#   Escrituras de memoria: 80
#   Throughput: 1.44 FLOPs/ciclo
# 
# ========================================
# Imagen de salida (4x4)
# ========================================
# Fila  0:   0  36  72 109 
# Fila  1:  36  72 109 145 
# Fila  2:  72 109 145 182 
# Fila  3: 109 145 182 218 
# ========================================
# 
# TEST 1 COMPLETADO
# 
# ========================================
# TEST 2: Imagen 8x8 SIMD
# ========================================
# [2915000] Reseteando sistema...
# [3065000] Reset completado
# [3065000] Cargando imagen de prueba 8x8...
#   Cargando fila 0/8
# [3715000] Imagen cargada exitosamente
# Dimensiones salida esperadas: 4x4
# [3715000] Iniciando procesamiento en modo       SIMD
# [3735000] Esperando completar procesamiento...
# [SIMD DP DONE] pixel_out[0]=218 [1]=36 [2]=72 [3]=109
# [SIMD WRITE] Time=4015000 x=0 y=0 idx=0 data=218 addr=131072
# [SIMD WRITE] Time=4025000 x=0 y=0 idx=1 data=36 addr=131073
# [SIMD WRITE] Time=4035000 x=0 y=0 idx=2 data=72 addr=131074
# [SIMD WRITE] Time=4045000 x=0 y=0 idx=3 data=109 addr=131075
# [SIMD DP DONE] pixel_out[0]=145 [1]=72 [2]=109 [3]=145
# [SIMD WRITE] Time=4325000 x=0 y=1 idx=0 data=145 addr=131076
# [SIMD WRITE] Time=4335000 x=0 y=1 idx=1 data=72 addr=131077
# [SIMD WRITE] Time=4345000 x=0 y=1 idx=2 data=109 addr=131078
# [SIMD WRITE] Time=4355000 x=0 y=1 idx=3 data=145 addr=131079
# [SIMD DP DONE] pixel_out[0]=182 [1]=109 [2]=145 [3]=182
# [SIMD WRITE] Time=4635000 x=0 y=2 idx=0 data=182 addr=131080
# [SIMD WRITE] Time=4645000 x=0 y=2 idx=1 data=109 addr=131081
# [SIMD WRITE] Time=4655000 x=0 y=2 idx=2 data=145 addr=131082
# [SIMD WRITE] Time=4665000 x=0 y=2 idx=3 data=182 addr=131083
# [SIMD DP DONE] pixel_out[0]=218 [1]=145 [2]=182 [3]=218
# [SIMD WRITE] Time=4945000 x=0 y=3 idx=0 data=218 addr=131084
# [SIMD WRITE] Time=4955000 x=0 y=3 idx=1 data=145 addr=131085
# [SIMD WRITE] Time=4965000 x=0 y=3 idx=2 data=182 addr=131086
# [SIMD WRITE] Time=4975000 x=0 y=3 idx=3 data=218 addr=131087
# [4995000] Procesamiento completado en 126 ciclos
#   FLOPs ejecutadas: 128
#   Lecturas de memoria: 64
#   Escrituras de memoria: 80
#   Throughput: 1.02 FLOPs/ciclo
# 
# ========================================
# Imagen de salida (4x4)
# ========================================
# Fila  0: 218  36  72 109 
# Fila  1: 145  72 109 145 
# Fila  2: 182 109 145 182 
# Fila  3: 218 145 182 218 
# ========================================
# 
# TEST 2 COMPLETADO
# 
# ========================================
# TEST 3: Imagen 16x16 Secuencial
# ========================================
# [5315000] Reseteando sistema...
# [5465000] Reset completado
# [5465000] Cargando imagen de prueba 16x16...
#   Cargando fila 0/16
#   Cargando fila 8/16
# [8035000] Imagen cargada exitosamente
# Dimensiones salida esperadas: 8x8
# [8035000] Iniciando procesamiento en modo SECUENCIAL
# [8055000] Esperando completar procesamiento...
# [15115000] Procesamiento completado en 706 ciclos
#   FLOPs ejecutadas: 1024
#   Lecturas de memoria: 256
#   Escrituras de memoria: 320
#   Throughput: 1.45 FLOPs/ciclo
# TEST 3 COMPLETADO
# 
# ========================================
# TEST 4: Imagen 16x16 SIMD
# ========================================
# [15115000] Reseteando sistema...
# [15265000] Reset completado
# [15265000] Cargando imagen de prueba 16x16...
#   Cargando fila 0/16
#   Cargando fila 8/16
# [17835000] Imagen cargada exitosamente
# Dimensiones salida esperadas: 8x8
# [17835000] Iniciando procesamiento en modo       SIMD
# [17855000] Esperando completar procesamiento...
# [SIMD DP DONE] pixel_out[0]=255 [1]=17 [2]=34 [3]=51
# [SIMD WRITE] Time=18135000 x=0 y=0 idx=0 data=255 addr=131072
# [SIMD WRITE] Time=18145000 x=0 y=0 idx=1 data=17 addr=131073
# [SIMD WRITE] Time=18155000 x=0 y=0 idx=2 data=34 addr=131074
# [SIMD WRITE] Time=18165000 x=0 y=0 idx=3 data=51 addr=131075
# [SIMD DP DONE] pixel_out[0]=68 [1]=85 [2]=102 [3]=119
# [SIMD WRITE] Time=18445000 x=4 y=0 idx=0 data=68 addr=131076
# [SIMD WRITE] Time=18455000 x=4 y=0 idx=1 data=85 addr=131077
# [SIMD WRITE] Time=18465000 x=4 y=0 idx=2 data=102 addr=131078
# [SIMD WRITE] Time=18475000 x=4 y=0 idx=3 data=119 addr=131079
# [SIMD DP DONE] pixel_out[0]=136 [1]=34 [2]=51 [3]=68
# [SIMD WRITE] Time=18755000 x=0 y=1 idx=0 data=136 addr=131080
# [SIMD WRITE] Time=18765000 x=0 y=1 idx=1 data=34 addr=131081
# [SIMD WRITE] Time=18775000 x=0 y=1 idx=2 data=51 addr=131082
# [SIMD WRITE] Time=18785000 x=0 y=1 idx=3 data=68 addr=131083
# [SIMD DP DONE] pixel_out[0]=85 [1]=102 [2]=119 [3]=136
# [SIMD WRITE] Time=19065000 x=4 y=1 idx=0 data=85 addr=131084
# [SIMD WRITE] Time=19075000 x=4 y=1 idx=1 data=102 addr=131085
# [SIMD WRITE] Time=19085000 x=4 y=1 idx=2 data=119 addr=131086
# [SIMD WRITE] Time=19095000 x=4 y=1 idx=3 data=136 addr=131087
# [SIMD DP DONE] pixel_out[0]=153 [1]=51 [2]=68 [3]=85
# [SIMD WRITE] Time=19375000 x=0 y=2 idx=0 data=153 addr=131088
# [SIMD WRITE] Time=19385000 x=0 y=2 idx=1 data=51 addr=131089
# [SIMD WRITE] Time=19395000 x=0 y=2 idx=2 data=68 addr=131090
# [SIMD WRITE] Time=19405000 x=0 y=2 idx=3 data=85 addr=131091
# [SIMD DP DONE] pixel_out[0]=102 [1]=119 [2]=136 [3]=153
# [SIMD WRITE] Time=19685000 x=4 y=2 idx=0 data=102 addr=131092
# [SIMD WRITE] Time=19695000 x=4 y=2 idx=1 data=119 addr=131093
# [SIMD WRITE] Time=19705000 x=4 y=2 idx=2 data=136 addr=131094
# [SIMD WRITE] Time=19715000 x=4 y=2 idx=3 data=153 addr=131095
# [SIMD DP DONE] pixel_out[0]=170 [1]=68 [2]=85 [3]=102
# [SIMD WRITE] Time=19995000 x=0 y=3 idx=0 data=170 addr=131096
# [SIMD WRITE] Time=20005000 x=0 y=3 idx=1 data=68 addr=131097
# [SIMD WRITE] Time=20015000 x=0 y=3 idx=2 data=85 addr=131098
# [SIMD WRITE] Time=20025000 x=0 y=3 idx=3 data=102 addr=131099
# [SIMD DP DONE] pixel_out[0]=119 [1]=136 [2]=153 [3]=170
# [SIMD WRITE] Time=20305000 x=4 y=3 idx=0 data=119 addr=131100
# [SIMD WRITE] Time=20315000 x=4 y=3 idx=1 data=136 addr=131101
# [SIMD WRITE] Time=20325000 x=4 y=3 idx=2 data=153 addr=131102
# [SIMD WRITE] Time=20335000 x=4 y=3 idx=3 data=170 addr=131103
# [SIMD DP DONE] pixel_out[0]=187 [1]=85 [2]=102 [3]=119
# [SIMD WRITE] Time=20615000 x=0 y=4 idx=0 data=187 addr=131104
# [SIMD WRITE] Time=20625000 x=0 y=4 idx=1 data=85 addr=131105
# [SIMD WRITE] Time=20635000 x=0 y=4 idx=2 data=102 addr=131106
# [SIMD WRITE] Time=20645000 x=0 y=4 idx=3 data=119 addr=131107
# [SIMD DP DONE] pixel_out[0]=136 [1]=153 [2]=170 [3]=187
# [SIMD WRITE] Time=20925000 x=4 y=4 idx=0 data=136 addr=131108
# [SIMD WRITE] Time=20935000 x=4 y=4 idx=1 data=153 addr=131109
# [SIMD WRITE] Time=20945000 x=4 y=4 idx=2 data=170 addr=131110
# [SIMD WRITE] Time=20955000 x=4 y=4 idx=3 data=187 addr=131111
# [SIMD DP DONE] pixel_out[0]=204 [1]=102 [2]=119 [3]=136
# [SIMD WRITE] Time=21235000 x=0 y=5 idx=0 data=204 addr=131112
# [SIMD WRITE] Time=21245000 x=0 y=5 idx=1 data=102 addr=131113
# [SIMD WRITE] Time=21255000 x=0 y=5 idx=2 data=119 addr=131114
# [SIMD WRITE] Time=21265000 x=0 y=5 idx=3 data=136 addr=131115
# [SIMD DP DONE] pixel_out[0]=153 [1]=170 [2]=187 [3]=204
# [SIMD WRITE] Time=21545000 x=4 y=5 idx=0 data=153 addr=131116
# [SIMD WRITE] Time=21555000 x=4 y=5 idx=1 data=170 addr=131117
# [SIMD WRITE] Time=21565000 x=4 y=5 idx=2 data=187 addr=131118
# [SIMD WRITE] Time=21575000 x=4 y=5 idx=3 data=204 addr=131119
# [SIMD DP DONE] pixel_out[0]=221 [1]=119 [2]=136 [3]=153
# [SIMD WRITE] Time=21855000 x=0 y=6 idx=0 data=221 addr=131120
# [SIMD WRITE] Time=21865000 x=0 y=6 idx=1 data=119 addr=131121
# [SIMD WRITE] Time=21875000 x=0 y=6 idx=2 data=136 addr=131122
# [SIMD WRITE] Time=21885000 x=0 y=6 idx=3 data=153 addr=131123
# [SIMD DP DONE] pixel_out[0]=170 [1]=187 [2]=204 [3]=221
# [SIMD WRITE] Time=22165000 x=4 y=6 idx=0 data=170 addr=131124
# [SIMD WRITE] Time=22175000 x=4 y=6 idx=1 data=187 addr=131125
# [SIMD WRITE] Time=22185000 x=4 y=6 idx=2 data=204 addr=131126
# [SIMD WRITE] Time=22195000 x=4 y=6 idx=3 data=221 addr=131127
# [SIMD DP DONE] pixel_out[0]=238 [1]=136 [2]=153 [3]=170
# [SIMD WRITE] Time=22475000 x=0 y=7 idx=0 data=238 addr=131128
# [SIMD WRITE] Time=22485000 x=0 y=7 idx=1 data=136 addr=131129
# [SIMD WRITE] Time=22495000 x=0 y=7 idx=2 data=153 addr=131130
# [SIMD WRITE] Time=22505000 x=0 y=7 idx=3 data=170 addr=131131
# [SIMD DP DONE] pixel_out[0]=187 [1]=204 [2]=221 [3]=238
# [SIMD WRITE] Time=22785000 x=4 y=7 idx=0 data=187 addr=131132
# [SIMD WRITE] Time=22795000 x=4 y=7 idx=1 data=204 addr=131133
# [SIMD WRITE] Time=22805000 x=4 y=7 idx=2 data=221 addr=131134
# [SIMD WRITE] Time=22815000 x=4 y=7 idx=3 data=238 addr=131135
# [22835000] Procesamiento completado en 498 ciclos
#   FLOPs ejecutadas: 512
#   Lecturas de memoria: 256
#   Escrituras de memoria: 320
#   Throughput: 1.03 FLOPs/ciclo
# TEST 4 COMPLETADO
# 
# ========================================
# TEST 5: Comparacion de Rendimiento 32x32
# ========================================
# 
# --- MODO SECUENCIAL ---
# [22835000] Reseteando sistema...
# [22985000] Reset completado
# [22985000] Cargando imagen de prueba 32x32...
#   Cargando fila 0/32
#   Cargando fila 8/32
#   Cargando fila 16/32
#   Cargando fila 24/32
# [33235000] Imagen cargada exitosamente
# [33235000] Iniciando procesamiento en modo SECUENCIAL
# [33255000] Esperando completar procesamiento...
#   Ciclo 1000: Progreso = 90 pixeles
#   Ciclo 2000: Progreso = 181 pixeles
# [61435000] Procesamiento completado en 2818 ciclos
#   FLOPs ejecutadas: 4096
#   Lecturas de memoria: 1024
#   Escrituras de memoria: 1280
#   Throughput: 1.45 FLOPs/ciclo
# 
# --- MODO SIMD ---
# [61435000] Reseteando sistema...
# [61585000] Reset completado
# [61585000] Cargando imagen de prueba 32x32...
#   Cargando fila 0/32
#   Cargando fila 8/32
#   Cargando fila 16/32
#   Cargando fila 24/32
# [71835000] Imagen cargada exitosamente
# [71835000] Iniciando procesamiento en modo       SIMD
# [71855000] Esperando completar procesamiento...
# [SIMD DP DONE] pixel_out[0]=255 [1]=8 [2]=16 [3]=24
# [SIMD WRITE] Time=72135000 x=0 y=0 idx=0 data=255 addr=131072
# [SIMD WRITE] Time=72145000 x=0 y=0 idx=1 data=8 addr=131073
# [SIMD WRITE] Time=72155000 x=0 y=0 idx=2 data=16 addr=131074
# [SIMD WRITE] Time=72165000 x=0 y=0 idx=3 data=24 addr=131075
# [SIMD DP DONE] pixel_out[0]=32 [1]=41 [2]=49 [3]=57
# [SIMD WRITE] Time=72445000 x=4 y=0 idx=0 data=32 addr=131076
# [SIMD WRITE] Time=72455000 x=4 y=0 idx=1 data=41 addr=131077
# [SIMD WRITE] Time=72465000 x=4 y=0 idx=2 data=49 addr=131078
# [SIMD WRITE] Time=72475000 x=4 y=0 idx=3 data=57 addr=131079
# [SIMD DP DONE] pixel_out[0]=65 [1]=74 [2]=82 [3]=90
# [SIMD WRITE] Time=72755000 x=8 y=0 idx=0 data=65 addr=131080
# [SIMD WRITE] Time=72765000 x=8 y=0 idx=1 data=74 addr=131081
# [SIMD WRITE] Time=72775000 x=8 y=0 idx=2 data=82 addr=131082
# [SIMD WRITE] Time=72785000 x=8 y=0 idx=3 data=90 addr=131083
# [SIMD DP DONE] pixel_out[0]=98 [1]=106 [2]=115 [3]=123
# [SIMD WRITE] Time=73065000 x=12 y=0 idx=0 data=98 addr=131084
# [SIMD WRITE] Time=73075000 x=12 y=0 idx=1 data=106 addr=131085
# [SIMD WRITE] Time=73085000 x=12 y=0 idx=2 data=115 addr=131086
# [SIMD WRITE] Time=73095000 x=12 y=0 idx=3 data=123 addr=131087
# [SIMD DP DONE] pixel_out[0]=131 [1]=16 [2]=24 [3]=32
# [SIMD WRITE] Time=73375000 x=0 y=1 idx=0 data=131 addr=131088
# [SIMD WRITE] Time=73385000 x=0 y=1 idx=1 data=16 addr=131089
# [SIMD WRITE] Time=73395000 x=0 y=1 idx=2 data=24 addr=131090
# [SIMD WRITE] Time=73405000 x=0 y=1 idx=3 data=32 addr=131091
# [SIMD DP DONE] pixel_out[0]=41 [1]=49 [2]=57 [3]=65
# [SIMD WRITE] Time=73685000 x=4 y=1 idx=0 data=41 addr=131092
# [SIMD WRITE] Time=73695000 x=4 y=1 idx=1 data=49 addr=131093
# [SIMD WRITE] Time=73705000 x=4 y=1 idx=2 data=57 addr=131094
# [SIMD WRITE] Time=73715000 x=4 y=1 idx=3 data=65 addr=131095
# [SIMD DP DONE] pixel_out[0]=74 [1]=82 [2]=90 [3]=98
# [SIMD WRITE] Time=73995000 x=8 y=1 idx=0 data=74 addr=131096
# [SIMD WRITE] Time=74005000 x=8 y=1 idx=1 data=82 addr=131097
# [SIMD WRITE] Time=74015000 x=8 y=1 idx=2 data=90 addr=131098
# [SIMD WRITE] Time=74025000 x=8 y=1 idx=3 data=98 addr=131099
# [SIMD DP DONE] pixel_out[0]=106 [1]=115 [2]=123 [3]=131
# [SIMD WRITE] Time=74305000 x=12 y=1 idx=0 data=106 addr=131100
# [SIMD WRITE] Time=74315000 x=12 y=1 idx=1 data=115 addr=131101
# [SIMD WRITE] Time=74325000 x=12 y=1 idx=2 data=123 addr=131102
# [SIMD WRITE] Time=74335000 x=12 y=1 idx=3 data=131 addr=131103
# [SIMD DP DONE] pixel_out[0]=139 [1]=24 [2]=32 [3]=41
# [SIMD WRITE] Time=74615000 x=0 y=2 idx=0 data=139 addr=131104
# [SIMD WRITE] Time=74625000 x=0 y=2 idx=1 data=24 addr=131105
# [SIMD WRITE] Time=74635000 x=0 y=2 idx=2 data=32 addr=131106
# [SIMD WRITE] Time=74645000 x=0 y=2 idx=3 data=41 addr=131107
# [SIMD DP DONE] pixel_out[0]=49 [1]=57 [2]=65 [3]=74
# [SIMD WRITE] Time=74925000 x=4 y=2 idx=0 data=49 addr=131108
# [SIMD WRITE] Time=74935000 x=4 y=2 idx=1 data=57 addr=131109
# [SIMD WRITE] Time=74945000 x=4 y=2 idx=2 data=65 addr=131110
# [SIMD WRITE] Time=74955000 x=4 y=2 idx=3 data=74 addr=131111
# [SIMD DP DONE] pixel_out[0]=82 [1]=90 [2]=98 [3]=106
# [SIMD WRITE] Time=75235000 x=8 y=2 idx=0 data=82 addr=131112
# [SIMD WRITE] Time=75245000 x=8 y=2 idx=1 data=90 addr=131113
# [SIMD WRITE] Time=75255000 x=8 y=2 idx=2 data=98 addr=131114
# [SIMD WRITE] Time=75265000 x=8 y=2 idx=3 data=106 addr=131115
# [SIMD DP DONE] pixel_out[0]=115 [1]=123 [2]=131 [3]=139
# [SIMD WRITE] Time=75545000 x=12 y=2 idx=0 data=115 addr=131116
# [SIMD WRITE] Time=75555000 x=12 y=2 idx=1 data=123 addr=131117
# [SIMD WRITE] Time=75565000 x=12 y=2 idx=2 data=131 addr=131118
# [SIMD WRITE] Time=75575000 x=12 y=2 idx=3 data=139 addr=131119
# [SIMD DP DONE] pixel_out[0]=148 [1]=32 [2]=41 [3]=49
# [SIMD WRITE] Time=75855000 x=0 y=3 idx=0 data=148 addr=131120
# [SIMD WRITE] Time=75865000 x=0 y=3 idx=1 data=32 addr=131121
# [SIMD WRITE] Time=75875000 x=0 y=3 idx=2 data=41 addr=131122
# [SIMD WRITE] Time=75885000 x=0 y=3 idx=3 data=49 addr=131123
# [SIMD DP DONE] pixel_out[0]=57 [1]=65 [2]=74 [3]=82
# [SIMD WRITE] Time=76165000 x=4 y=3 idx=0 data=57 addr=131124
# [SIMD WRITE] Time=76175000 x=4 y=3 idx=1 data=65 addr=131125
# [SIMD WRITE] Time=76185000 x=4 y=3 idx=2 data=74 addr=131126
# [SIMD WRITE] Time=76195000 x=4 y=3 idx=3 data=82 addr=131127
# [SIMD DP DONE] pixel_out[0]=90 [1]=98 [2]=106 [3]=115
# [SIMD WRITE] Time=76475000 x=8 y=3 idx=0 data=90 addr=131128
# [SIMD WRITE] Time=76485000 x=8 y=3 idx=1 data=98 addr=131129
# [SIMD WRITE] Time=76495000 x=8 y=3 idx=2 data=106 addr=131130
# [SIMD WRITE] Time=76505000 x=8 y=3 idx=3 data=115 addr=131131
# [SIMD DP DONE] pixel_out[0]=123 [1]=131 [2]=139 [3]=148
# [SIMD WRITE] Time=76785000 x=12 y=3 idx=0 data=123 addr=131132
# [SIMD WRITE] Time=76795000 x=12 y=3 idx=1 data=131 addr=131133
# [SIMD WRITE] Time=76805000 x=12 y=3 idx=2 data=139 addr=131134
# [SIMD WRITE] Time=76815000 x=12 y=3 idx=3 data=148 addr=131135
# [SIMD DP DONE] pixel_out[0]=156 [1]=41 [2]=49 [3]=57
# [SIMD WRITE] Time=77095000 x=0 y=4 idx=0 data=156 addr=131136
# [SIMD WRITE] Time=77105000 x=0 y=4 idx=1 data=41 addr=131137
# [SIMD WRITE] Time=77115000 x=0 y=4 idx=2 data=49 addr=131138
# [SIMD WRITE] Time=77125000 x=0 y=4 idx=3 data=57 addr=131139
# [SIMD DP DONE] pixel_out[0]=65 [1]=74 [2]=82 [3]=90
# [SIMD WRITE] Time=77405000 x=4 y=4 idx=0 data=65 addr=131140
# [SIMD WRITE] Time=77415000 x=4 y=4 idx=1 data=74 addr=131141
# [SIMD WRITE] Time=77425000 x=4 y=4 idx=2 data=82 addr=131142
# [SIMD WRITE] Time=77435000 x=4 y=4 idx=3 data=90 addr=131143
# [SIMD DP DONE] pixel_out[0]=98 [1]=106 [2]=115 [3]=123
# [SIMD WRITE] Time=77715000 x=8 y=4 idx=0 data=98 addr=131144
# [SIMD WRITE] Time=77725000 x=8 y=4 idx=1 data=106 addr=131145
# [SIMD WRITE] Time=77735000 x=8 y=4 idx=2 data=115 addr=131146
# [SIMD WRITE] Time=77745000 x=8 y=4 idx=3 data=123 addr=131147
# [SIMD DP DONE] pixel_out[0]=131 [1]=139 [2]=148 [3]=156
# [SIMD WRITE] Time=78025000 x=12 y=4 idx=0 data=131 addr=131148
# [SIMD WRITE] Time=78035000 x=12 y=4 idx=1 data=139 addr=131149
# [SIMD WRITE] Time=78045000 x=12 y=4 idx=2 data=148 addr=131150
# [SIMD WRITE] Time=78055000 x=12 y=4 idx=3 data=156 addr=131151
# [SIMD DP DONE] pixel_out[0]=164 [1]=49 [2]=57 [3]=65
# [SIMD WRITE] Time=78335000 x=0 y=5 idx=0 data=164 addr=131152
# [SIMD WRITE] Time=78345000 x=0 y=5 idx=1 data=49 addr=131153
